\relax 
\providecommand\hyper@newdestlabel[2]{}
\providecommand\HyperFirstAtBeginDocument{\AtBeginDocument}
\HyperFirstAtBeginDocument{\ifx\hyper@anchor\@undefined
\global\let\oldcontentsline\contentsline
\gdef\contentsline#1#2#3#4{\oldcontentsline{#1}{#2}{#3}}
\global\let\oldnewlabel\newlabel
\gdef\newlabel#1#2{\newlabelxx{#1}#2}
\gdef\newlabelxx#1#2#3#4#5#6{\oldnewlabel{#1}{{#2}{#3}}}
\AtEndDocument{\ifx\hyper@anchor\@undefined
\let\contentsline\oldcontentsline
\let\newlabel\oldnewlabel
\fi}
\fi}
\global\let\hyper@last\relax 
\gdef\HyperFirstAtBeginDocument#1{#1}
\providecommand\HyField@AuxAddToFields[1]{}
\providecommand\HyField@AuxAddToCoFields[2]{}
\citation{barroso2013datacenter}
\citation{abts2012guided}
\citation{guo2013expandable}
\citation{li2014design}
\citation{al2008scalable}
\citation{greenberg2011vl2}
\citation{li2009ficonn}
\citation{li2014design}
\citation{guo2008dcell}
\citation{guo2009bcube}
\citation{li2009ficonn}
\citation{liao2010dpillar}
\citation{liao2012dpillar}
\citation{li2014design}
\citation{liao2012dpillar}
\citation{liao2012dpillar}
\@writefile{toc}{\contentsline {title}{On Routing Algorithms for the \unskip \ \ignorespaces DPillar Data Centre Networks }{1}{chapter.1}}
\@writefile{toc}{\authcount {1}}
\@writefile{toc}{\contentsline {author}{ Abbas Eslami Kiasari\unskip {}, Javier Navaridas\unskip {}, and Iain A. Stewart\unskip {} }{1}{chapter.1}}
\@writefile{toc}{\contentsline {section}{\numberline {1}Introduction}{1}{section.1.1}}
\newlabel{sec:int}{{1}{1}{Introduction}{section.1.1}{}}
\citation{liao2012dpillar}
\citation{liao2010dpillar}
\@writefile{toc}{\contentsline {section}{\numberline {2}Preliminaries}{2}{section.1.2}}
\newlabel{sec:pre}{{2}{2}{Preliminaries}{section.1.2}{}}
\@writefile{toc}{\contentsline {subsection}{\numberline {2.1}Topology}{2}{subsection.1.2.1}}
\newlabel{subsec:topol}{{2.1}{2}{Topology}{subsection.1.2.1}{}}
\citation{liao2012dpillar}
\@writefile{lof}{\contentsline {figure}{\numberline {1}{\ignorespaces A vertical view of DPillar with $k$ columns of servers $(H_i)$ and $k$ columns of switches $(S_i)$}}{3}{figure.1.1}}
\newlabel{fig:vertical}{{1}{3}{A vertical view of DPillar with $k$ columns of servers $(H_i)$ and $k$ columns of switches $(S_i)$}{figure.1.1}{}}
\@writefile{toc}{\contentsline {subsection}{\numberline {2.2}Single-Path Routing (DPillarSP)}{3}{subsection.1.2.2}}
\newlabel{subsec:SP}{{2.2}{3}{Single-Path Routing (DPillarSP)}{subsection.1.2.2}{}}
\citation{liao2012dpillar}
\citation{liao2012dpillar}
\citation{liao2012dpillar}
\citation{liao2012dpillar}
\@writefile{lof}{\contentsline {figure}{\numberline {2}{\ignorespaces Two-dimensional view of a (6,3) DPillar network. The red lines show the route between servers 0,000 and 2,222 computed by the routing algorithm DPillarSP in the clockwise direction. Note that the rightmost and leftmost columns are the same.}}{4}{figure.1.2}}
\newlabel{fig:DPillar_6_3}{{2}{4}{Two-dimensional view of a (6,3) DPillar network. The red lines show the route between servers 0,000 and 2,222 computed by the routing algorithm DPillarSP in the clockwise direction. Note that the rightmost and leftmost columns are the same}{figure.1.2}{}}
\@writefile{lof}{\contentsline {figure}{\numberline {3}{\ignorespaces $n/2$ disjoint paths between any source and destination}}{5}{figure.1.3}}
\newlabel{fig:MP}{{3}{5}{$n/2$ disjoint paths between any source and destination}{figure.1.3}{}}
\@writefile{toc}{\contentsline {subsection}{\numberline {2.3}Multi-Path Routing (DPillarMP)}{5}{subsection.1.2.3}}
\newlabel{subsubsec:MP}{{2.3}{5}{Multi-Path Routing (DPillarMP)}{subsection.1.2.3}{}}
\@writefile{toc}{\contentsline {section}{\numberline {3}Performance of DPillarSP}{5}{section.1.3}}
\newlabel{per}{{3}{5}{Performance of DPillarSP}{section.1.3}{}}
\@writefile{toc}{\contentsline {subsection}{\numberline {3.1}Average Hop Count}{5}{subsection.1.3.1}}
\newlabel{subsec:avg}{{3.1}{5}{Average Hop Count}{subsection.1.3.1}{}}
\citation{liao2012dpillar}
\citation{liao2012dpillar}
\citation{liao2012dpillar}
\@writefile{lot}{\contentsline {table}{\numberline {1}{\ignorespaces Parameters and notations}}{6}{table.1.1}}
\newlabel{tab:notation}{{1}{6}{Parameters and notations}{table.1.1}{}}
\newlabel{lem:avg}{{1}{6}{Average Hop Count}{lemma.1.1}{}}
\citation{patashnik1989concrete}
\citation{guo2009bcube}
\citation{dally2004principles}
\newlabel{eq:distribution}{{1}{7}{Average Hop Count}{equation.1.3.1}{}}
\newlabel{eq:avg}{{2}{7}{Average Hop Count}{equation.1.3.2}{}}
\@writefile{toc}{\contentsline {subsection}{\numberline {3.2}Aggregate Bottleneck Throughput}{7}{subsection.1.3.2}}
\newlabel{subsec:abt}{{3.2}{7}{Aggregate Bottleneck Throughput}{subsection.1.3.2}{}}
\newlabel{eq:abt}{{3}{8}{Aggregate Bottleneck Throughput}{equation.1.3.3}{}}
\@writefile{toc}{\contentsline {section}{\numberline {4}Improving Routing Algorithms}{8}{section.1.4}}
\newlabel{sec:improving}{{4}{8}{Improving Routing Algorithms}{section.1.4}{}}
\@writefile{toc}{\contentsline {subsection}{\numberline {4.1}Random Direction DPillarSP}{8}{subsection.1.4.1}}
\newlabel{subsec:RND_SP}{{4.1}{8}{Random Direction DPillarSP}{subsection.1.4.1}{}}
\@writefile{loa}{\contentsline {algorithm}{\numberline {1}{\ignorespaces \textit  {RND\_SP(src, dst)}}}{9}{algorithm.1}}
\newlabel{alg:RND_SP}{{1}{9}{Random Direction DPillarSP}{algorithm.1}{}}
\@writefile{toc}{\contentsline {subsection}{\numberline {4.2}Shorter Direction DPillarSP}{9}{subsection.1.4.2}}
\newlabel{subsec:SHD_MP}{{4.2}{9}{Shorter Direction DPillarSP}{subsection.1.4.2}{}}
\@writefile{toc}{\contentsline {subsection}{\numberline {4.3}Turn back feature}{9}{subsection.1.4.3}}
\newlabel{subsec:trn}{{4.3}{9}{Turn back feature}{subsection.1.4.3}{}}
\@writefile{loa}{\contentsline {algorithm}{\numberline {2}{\ignorespaces \textit  {SHD\_SP(src, dst)}}}{10}{algorithm.2}}
\newlabel{alg:SHD_SP}{{2}{10}{Shorter Direction DPillarSP}{algorithm.2}{}}
\@writefile{toc}{\contentsline {section}{\numberline {5}Experimental Results}{10}{section.1.5}}
\newlabel{sec:exp}{{5}{10}{Experimental Results}{section.1.5}{}}
\@writefile{lof}{\contentsline {figure}{\numberline {4}{\ignorespaces The average hop count and the ABT for different size of DPillar DCNs when using DPillarSP, comparing experimental results with those derived in Lemma\nobreakspace  {}\ref  {lem:avg}}}{11}{figure.1.4}}
\newlabel{plot:avg_abt_eval}{{4}{11}{The average hop count and the ABT for different size of DPillar DCNs when using DPillarSP, comparing experimental results with those derived in Lemma~\ref {lem:avg}}{figure.1.4}{}}
\newlabel{fig:DSE}{{5}{11}{Experimental Results}{figure.1.4}{}}
\@writefile{lof}{\contentsline {figure}{\numberline {5}{\ignorespaces Design space exploration of DPillar DCN based on average hop count and ABT}}{11}{figure.1.5}}
\@writefile{lof}{\contentsline {figure}{\numberline {6}{\ignorespaces Diameter and average hop count of proposed and canonical routing algorithms}}{12}{figure.1.6}}
\newlabel{fig:max_avg}{{6}{12}{Diameter and average hop count of proposed and canonical routing algorithms}{figure.1.6}{}}
\@writefile{lof}{\contentsline {figure}{\numberline {7}{\ignorespaces ABT and load distribution of proposed and canonical routing algorithms}}{12}{figure.1.7}}
\newlabel{fig:abt_load}{{7}{12}{ABT and load distribution of proposed and canonical routing algorithms}{figure.1.7}{}}
\@writefile{lof}{\contentsline {figure}{\numberline {8}{\ignorespaces Percentage of pairs of nodes connected by different routing algorithms}}{13}{figure.1.8}}
\newlabel{fig:conn}{{8}{13}{Percentage of pairs of nodes connected by different routing algorithms}{figure.1.8}{}}
\@writefile{toc}{\contentsline {section}{\numberline {6}Conclusion}{13}{section.1.6}}
\newlabel{sec:con}{{6}{13}{Conclusion}{section.1.6}{}}
\bibstyle{splncs03}
\bibdata{bib_DCN}
\bibcite{abts2012guided}{1}
\bibcite{al2008scalable}{2}
\bibcite{barroso2013datacenter}{3}
\bibcite{dally2004principles}{4}
\bibcite{patashnik1989concrete}{5}
\bibcite{greenberg2011vl2}{6}
\bibcite{guo2009bcube}{7}
\bibcite{guo2008dcell}{8}
\bibcite{guo2013expandable}{9}
\bibcite{li2009ficonn}{10}
\bibcite{li2014design}{11}
\bibcite{liao2010dpillar}{12}
\bibcite{liao2012dpillar}{13}
